^F:\SERVER\SERVER\DATABASE.CPP|F:\SERVER\SERVER\GAME.CPP|F:\SERVER\SERVER\HELPER.CPP|F:\SERVER\SERVER\QUESTION.CPP|F:\SERVER\SERVER\RECIEVEDMESSAGE.CPP|F:\SERVER\SERVER\ROOM.CPP|F:\SERVER\SERVER\SOURCE.CPP|F:\SERVER\SERVER\TRIVIASERVER.CPP|F:\SERVER\SERVER\USER.CPP|F:\SERVER\SERVER\VALIDATOR.CPP|F:\SERVER\SERVER\WSAINITIALIZER.CPP
F:\SERVER\SERVER\X64\DEBUG\VC141.PDB
F:\SERVER\SERVER\X64\DEBUG\VC141.IDB
F:\SERVER\SERVER\X64\DEBUG\DATABASE.OBJ
F:\SERVER\SERVER\X64\DEBUG\GAME.OBJ
F:\SERVER\SERVER\X64\DEBUG\HELPER.OBJ
F:\SERVER\SERVER\X64\DEBUG\QUESTION.OBJ
F:\SERVER\SERVER\X64\DEBUG\RECIEVEDMESSAGE.OBJ
F:\SERVER\SERVER\X64\DEBUG\ROOM.OBJ
F:\SERVER\SERVER\X64\DEBUG\SOURCE.OBJ
F:\SERVER\SERVER\X64\DEBUG\TRIVIASERVER.OBJ
F:\SERVER\SERVER\X64\DEBUG\USER.OBJ
F:\SERVER\SERVER\X64\DEBUG\VALIDATOR.OBJ
F:\SERVER\SERVER\X64\DEBUG\WSAINITIALIZER.OBJ
^F:\SERVER\SERVER\DATABASE.CPP
F:\SERVER\SERVER\X64\DEBUG\VC141.PDB
^F:\SERVER\SERVER\GAME.CPP
F:\SERVER\SERVER\X64\DEBUG\VC141.PDB
^F:\SERVER\SERVER\HELPER.CPP
F:\SERVER\SERVER\X64\DEBUG\VC141.PDB
^F:\SERVER\SERVER\QUESTION.CPP
F:\SERVER\SERVER\X64\DEBUG\VC141.PDB
^F:\SERVER\SERVER\RECIEVEDMESSAGE.CPP
F:\SERVER\SERVER\X64\DEBUG\VC141.PDB
^F:\SERVER\SERVER\ROOM.CPP
F:\SERVER\SERVER\X64\DEBUG\VC141.PDB
^F:\SERVER\SERVER\SOURCE.CPP
F:\SERVER\SERVER\X64\DEBUG\VC141.PDB
^F:\SERVER\SERVER\TRIVIASERVER.CPP
F:\SERVER\SERVER\X64\DEBUG\VC141.PDB
F:\SERVER\SERVER\X64\DEBUG\VC141.IDB
F:\SERVER\SERVER\X64\DEBUG\TRIVIASERVER.OBJ
^F:\SERVER\SERVER\USER.CPP
F:\SERVER\SERVER\X64\DEBUG\VC141.PDB
^F:\SERVER\SERVER\VALIDATOR.CPP
F:\SERVER\SERVER\X64\DEBUG\VC141.PDB
^F:\SERVER\SERVER\WSAINITIALIZER.CPP
F:\SERVER\SERVER\X64\DEBUG\VC141.PDB
^F:\SERVER\SERVER\SQLITE3.C
F:\SERVER\SERVER\X64\DEBUG\VC141.PDB
F:\SERVER\SERVER\X64\DEBUG\VC141.IDB
F:\SERVER\SERVER\X64\DEBUG\SQLITE3.OBJ
